module github.com/flipped-aurora/gin-vue-admin/server

go 1.18

require (
	github.com/alecthomas/template v0.0.0-20190718012654-fb15b899a751
	github.com/aliyun/aliyun-oss-go-sdk v2.1.6+incompatible
	github.com/aws/aws-sdk-go v1.42.27
	github.com/casbin/casbin/v2 v2.51.0
	github.com/casbin/gorm-adapter/v3 v3.7.3
	github.com/flipped-aurora/gva-plugins v0.0.0-20220713105221-be91568fccd7
	github.com/flipped-aurora/ws v1.0.2
	github.com/fsnotify/fsnotify v1.4.9
	github.com/fvbock/endless v0.0.0-20170109170031-447134032cb6
	github.com/gin-gonic/gin v1.7.0
	github.com/go-redis/redis/v8 v8.11.4
	github.com/go-sql-driver/mysql v1.6.0
	github.com/golang-jwt/jwt/v4 v4.3.0
	github.com/gookit/color v1.3.1
	github.com/huaweicloud/huaweicloud-sdk-go-obs v3.21.8+incompatible
	github.com/jordan-wright/email v0.0.0-20200824153738-3f5bafa1cd84
	github.com/lestrrat-go/file-rotatelogs v2.4.0+incompatible
	github.com/mojocn/base64Captcha v1.3.1
	github.com/otiai10/copy v1.7.0
	github.com/pkg/errors v0.9.1
	github.com/qiniu/api.v7/v7 v7.4.1
	github.com/robfig/cron/v3 v3.0.1
	github.com/satori/go.uuid v1.2.0
	github.com/shirou/gopsutil/v3 v3.22.5
	github.com/songzhibin97/gkit v1.2.7
	github.com/spf13/viper v1.7.0
	github.com/stretchr/testify v1.7.1
	github.com/swaggo/gin-swagger v1.3.0
	github.com/swaggo/swag v1.7.0
	github.com/tencentyun/cos-go-sdk-v5 v0.7.19
	github.com/unrolled/secure v1.0.7
	go.uber.org/zap v1.16.0
	golang.org/x/crypto v0.0.0-20220411220226-7b82a4e95df4
	golang.org/x/sync v0.0.0-20210220032951-036812b2e83c
	golang.org/x/text v0.3.7
	gorm.io/driver/mysql v1.3.3
	gorm.io/driver/postgres v1.3.4
	gorm.io/driver/sqlserver v1.3.2
	gorm.io/gorm v1.23.4
	nhooyr.io/websocket v1.8.7
)

require (
	github.com/Knetic/govaluate v3.0.1-0.20171022003610-9aa49832a739+incompatible // indirect
	github.com/KyleBanks/depth v1.2.1 // indirect
	github.com/PuerkitoBio/purell v1.1.1 // indirect
	github.com/PuerkitoBio/urlesc v0.0.0-20170810143723-de5bf2ad4578 // indirect
	github.com/cespare/xxhash/v2 v2.1.2 // indirect
	github.com/davecgh/go-spew v1.1.1 // indirect
	github.com/denisenkom/go-mssqldb v0.12.0 // indirect
	github.com/dgryski/go-rendezvous v0.0.0-20200823014737-9f7001d12a5f // indirect
	github.com/gin-contrib/sse v0.1.0 // indirect
	github.com/glebarez/go-sqlite v1.16.0 // indirect
	github.com/glebarez/sqlite v1.4.3 // indirect
	github.com/go-ole/go-ole v1.2.6 // indirect
	github.com/go-openapi/jsonpointer v0.19.5 // indirect
	github.com/go-openapi/jsonreference v0.19.6 // indirect
	github.com/go-openapi/spec v0.20.3 // indirect
	github.com/go-openapi/swag v0.19.15 // indirect
	github.com/go-playground/locales v0.14.0 // indirect
	github.com/go-playground/universal-translator v0.18.0 // indirect
	github.com/go-playground/validator/v10 v10.10.0 // indirect
	github.com/golang-sql/civil v0.0.0-20220223132316-b832511892a9 // indirect
	github.com/golang-sql/sqlexp v0.0.0-20170517235910-f1bb20e5a188 // indirect
	github.com/golang/freetype v0.0.0-20170609003504-e2365dfdc4a0 // indirect
	github.com/golang/protobuf v1.5.2 // indirect
	github.com/google/go-querystring v1.0.0 // indirect
	github.com/google/uuid v1.3.0 // indirect
	github.com/hashicorp/hcl v1.0.0 // indirect
	github.com/jackc/chunkreader/v2 v2.0.1 // indirect
	github.com/jackc/pgconn v1.11.0 // indirect
	github.com/jackc/pgio v1.0.0 // indirect
	github.com/jackc/pgpassfile v1.0.0 // indirect
	github.com/jackc/pgproto3/v2 v2.2.0 // indirect
	github.com/jackc/pgservicefile v0.0.0-20200714003250-2b9c44734f2b // indirect
	github.com/jackc/pgtype v1.10.0 // indirect
	github.com/jackc/pgx/v4 v4.15.0 // indirect
	github.com/jinzhu/inflection v1.0.0 // indirect
	github.com/jinzhu/now v1.1.5 // indirect
	github.com/jmespath/go-jmespath v0.4.0 // indirect
	github.com/josharian/intern v1.0.0 // indirect
	github.com/json-iterator/go v1.1.12 // indirect
	github.com/klauspost/compress v1.13.6 // indirect
	github.com/leodido/go-urn v1.2.1 // indirect
	github.com/lestrrat-go/strftime v1.0.6 // indirect
	github.com/lufia/plan9stats v0.0.0-20211012122336-39d0f177ccd0 // indirect
	github.com/magiconair/properties v1.8.1 // indirect
	github.com/mailru/easyjson v0.7.7 // indirect
	github.com/mattn/go-isatty v0.0.14 // indirect
	github.com/mitchellh/mapstructure v1.2.2 // indirect
	github.com/modern-go/concurrent v0.0.0-20180306012644-bacd9c7ef1dd // indirect
	github.com/modern-go/reflect2 v1.0.2 // indirect
	github.com/mozillazg/go-httpheader v0.2.1 // indirect
	github.com/pelletier/go-toml v1.6.0 // indirect
	github.com/pmezard/go-difflib v1.0.0 // indirect
	github.com/power-devops/perfstat v0.0.0-20210106213030-5aafc221ea8c // indirect
	github.com/remyoudompheng/bigfft v0.0.0-20200410134404-eec4a21b6bb0 // indirect
	github.com/spf13/afero v1.2.2 // indirect
	github.com/spf13/cast v1.3.1 // indirect
	github.com/spf13/jwalterweatherman v1.1.0 // indirect
	github.com/spf13/pflag v1.0.5 // indirect
	github.com/subosito/gotenv v1.2.0 // indirect
	github.com/tklauser/go-sysconf v0.3.10 // indirect
	github.com/tklauser/numcpus v0.4.0 // indirect
	github.com/ugorji/go/codec v1.2.6 // indirect
	github.com/yusufpapurcu/wmi v1.2.2 // indirect
	go.uber.org/atomic v1.6.0 // indirect
	go.uber.org/multierr v1.5.0 // indirect
	golang.org/x/image v0.0.0-20210220032944-ac19c3e999fb // indirect
	golang.org/x/lint v0.0.0-20210508222113-6edffad5e616 // indirect
	golang.org/x/net v0.0.0-20211216030914-fe4d6282115f // indirect
	golang.org/x/sys v0.0.0-20220412211240-33da011f77ad // indirect
	golang.org/x/time v0.0.0-20211116232009-f0f3c7e86c11 // indirect
	golang.org/x/tools v0.1.5 // indirect
	google.golang.org/protobuf v1.27.1 // indirect
	gopkg.in/ini.v1 v1.55.0 // indirect
	gopkg.in/yaml.v2 v2.4.0 // indirect
	gopkg.in/yaml.v3 v3.0.0 // indirect
	gorm.io/plugin/dbresolver v1.1.0 // indirect
	modernc.org/libc v1.15.1 // indirect
	modernc.org/mathutil v1.4.1 // indirect
	modernc.org/memory v1.0.7 // indirect
	modernc.org/sqlite v1.16.0 // indirect
)
